<?xml version="1.0" encoding="utf-8"?>
<!-- Generator: Adobe Illustrator 22.1.0, SVG Export Plug-In . SVG Version: 6.00 Build 0)  -->
<svg version="1.1" id="Modo_de_aislamiento" xmlns="http://www.w3.org/2000/svg" xmlns:xlink="http://www.w3.org/1999/xlink"
	 x="0px" y="0px" viewBox="0 0 182.1 55.3" style="enable-background:new 0 0 182.1 55.3;" xml:space="preserve">
<style type="text/css">
	.st0{fill:#FFFFFF;}
</style>
<path class="st0" d="M25.4,41.1h-1.5v-1.4h4.4v1.4h-1.5v5.2h-1.4V41.1z"/>
<path class="st0" d="M33.7,45.1l-0.5,1.2h-1.5l3-6.7l3,6.7h-1.5l-0.5-1.2H33.7z M34.6,42.7l-0.5,1.1H35L34.6,42.7z"/>
<path class="st0" d="M42,39.8h1.4v6.6H42V39.8z"/>
<path class="st0" d="M48.4,39.8h1.4V45h2.5v1.3h-3.9V39.8z"/>
<path class="st0" d="M59.4,39.6c1.9,0,3.4,1.5,3.4,3.4s-1.5,3.4-3.4,3.4S56,45,56,43.1C56,41.2,57.5,39.6,59.4,39.6z M59.4,45.1
	c1,0,1.9-0.9,1.9-2s-0.9-2-1.9-2s-1.9,0.9-1.9,2S58.3,45.1,59.4,45.1z"/>
<path class="st0" d="M71.4,43.9c0.8,0.6,0.9,1.2,0.9,1.9v0.5h-1.4v-0.5c0-0.7-0.5-1.3-1.2-1.3h-0.9v1.8h-1.4v-6.6h2.4
	c1.3,0,2.4,1.1,2.4,2.4C72.3,43.1,71.9,43.6,71.4,43.9z M69.7,41.1h-0.9v2.3h0.9c0.6,0,1.1-0.5,1.1-1.1
	C70.8,41.6,70.3,41.1,69.7,41.1z"/>
<path class="st0" d="M77.1,39.8h4.1v1.4h-2.7v0.9H81v1.4h-2.5V45h2.7v1.4h-4.1V39.8z"/>
<path class="st0" d="M86.1,39.8h2.4c1.8,0,3.2,1.5,3.2,3.3s-1.4,3.3-3.2,3.3h-2.4V39.8z M88.3,45.1c1.1,0,1.9-0.9,1.9-2
	s-0.8-2-1.9-2h-0.9v4H88.3z"/>
<path class="st0" d="M109,42.9c0.4,0.3,0.8,0.8,0.8,1.5c0,1.1-0.9,2-2,2h-2.6v-6.6h2.6c1.1,0,1.9,0.8,1.9,1.9
	C109.6,42.2,109.2,42.6,109,42.9z M106.5,42.3h1c0.3,0,0.6-0.3,0.6-0.6s-0.3-0.6-0.6-0.6h-1V42.3z M107.5,45.1
	c0.4,0,0.8-0.3,0.8-0.8c0-0.4-0.3-0.8-0.8-0.8h-1.1V45L107.5,45.1L107.5,45.1z"/>
<path class="st0" d="M116.3,42.2l1.2-2.4h1.6l-2,3.8v2.8h-1.4v-2.8l-2-3.8h1.6L116.3,42.2z"/>
<path class="st0" d="M134.5,42.2l1.2-2.4h1.6l-2,3.8v2.8h-1.4v-2.8l-2-3.8h1.6L134.5,42.2z"/>
<path class="st0" d="M144.2,39.6c1.9,0,3.4,1.5,3.4,3.4s-1.5,3.4-3.4,3.4s-3.4-1.5-3.4-3.4C140.8,41.2,142.3,39.6,144.2,39.6z
	 M144.2,45.1c1,0,1.9-0.9,1.9-2s-0.9-2-1.9-2s-1.9,0.9-1.9,2S143.1,45.1,144.2,45.1z"/>
<path class="st0" d="M153.6,39.8v4.4c0,0.5,0.4,0.9,0.9,0.9s0.9-0.4,0.9-0.9v-4.4h1.4v4.4c0,1.3-1,2.3-2.4,2.3s-2.3-1-2.3-2.3v-4.4
	H153.6z"/>
<path class="st0" d="M28.5,14h-2.6c-0.3,0-0.4,0.1-0.4,0.4v13.4c0,0.3,0.1,0.4,0.4,0.4h2.6c0.2,0,0.4-0.1,0.4-0.4V14.4
	C28.9,14.1,28.8,14,28.5,14z"/>
<path class="st0" d="M155.6,14H153c-0.3,0-0.4,0.1-0.4,0.4v13.4c0,0.3,0.1,0.4,0.4,0.4h2.6c0.2,0,0.4-0.1,0.4-0.4V14.4
	C155.9,14.1,155.8,14,155.6,14z"/>
<path class="st0" d="M44.8,21.5c-0.2-0.3-0.5-0.6-0.8-0.8c-0.3-0.2-0.6-0.4-1-0.6c-0.3-0.2-0.7-0.3-1-0.5c-0.3-0.1-0.7-0.3-1-0.4
	s-0.6-0.2-0.8-0.4c-0.2-0.1-0.4-0.3-0.6-0.4c-0.1-0.2-0.2-0.3-0.2-0.5c0-0.3,0.1-0.5,0.4-0.7C40,17,40.4,17,40.7,17
	c0.8,0,1.5,0.2,2.2,0.6c0.1,0.1,0.2,0.1,0.3,0.1c0.2,0,0.3-0.1,0.3-0.2l1.3-2c0.1-0.2,0.1-0.4-0.1-0.5c-0.6-0.4-1.2-0.7-1.8-0.9
	s-1.3-0.3-2-0.3c-1.4,0-2.5,0.4-3.4,1.2s-1.4,1.8-1.4,3c0,0.6,0.1,1.1,0.3,1.6s0.4,0.8,0.7,1.1c0.3,0.3,0.6,0.6,1,0.8
	c0.4,0.2,0.7,0.4,1.1,0.6c0.4,0.2,0.7,0.3,1.1,0.5c0.4,0.2,0.7,0.3,1,0.4s0.5,0.3,0.7,0.5s0.3,0.4,0.3,0.6c0,0.3-0.1,0.6-0.4,0.8
	c-0.3,0.2-0.6,0.3-1.1,0.3c-0.4,0-0.9-0.1-1.4-0.3c-0.5-0.2-1-0.5-1.4-0.8C37.8,24,37.7,24,37.6,24c-0.1,0-0.2,0.1-0.3,0.2l-1.3,2
	c-0.1,0.2-0.1,0.4,0.1,0.5c0.7,0.5,1.4,0.9,2.2,1.2c0.7,0.3,1.5,0.4,2.4,0.4c0.7,0,1.3-0.1,1.9-0.3c0.6-0.2,1-0.4,1.4-0.7
	c0.4-0.3,0.7-0.6,0.9-1c0.3-0.4,0.4-0.8,0.6-1.2c0.1-0.4,0.2-0.8,0.2-1.2c0-0.5-0.1-1-0.2-1.4C45.3,22.1,45.1,21.8,44.8,21.5z"/>
<path class="st0" d="M61.3,24.9h-5.2v-2.2h4.5c0.2,0,0.4-0.1,0.4-0.4v-2.4c0-0.3-0.1-0.4-0.4-0.4h-4.5v-2.2h5.2
	c0.2,0,0.4-0.1,0.4-0.4v-2.5c0-0.3-0.1-0.4-0.4-0.4h-8.2c-0.3,0-0.4,0.1-0.4,0.4v13.4c0,0.3,0.1,0.4,0.4,0.4h8.2
	c0.3,0,0.4-0.1,0.4-0.4v-2.5C61.7,25,61.5,24.9,61.3,24.9z"/>
<path class="st0" d="M100.4,14h-2.6c-0.2,0-0.4,0.1-0.4,0.4v8l-5.7-8C91.5,14.1,91.3,14,91,14h-2.6c-0.3,0-0.4,0.1-0.4,0.4v13.4
	c0,0.3,0.1,0.4,0.4,0.4H91c0.2,0,0.4-0.1,0.4-0.4v-8l5.7,8c0.2,0.3,0.4,0.4,0.7,0.4h2.6c0.3,0,0.4-0.1,0.4-0.4V14.4
	C100.8,14.1,100.6,14,100.4,14z"/>
<path class="st0" d="M120.2,15.9c-0.7-0.6-1.4-1.2-2.3-1.5c-0.9-0.4-1.9-0.6-2.9-0.6c-1.4,0-2.6,0.3-3.7,1c-1.1,0.6-2,1.5-2.6,2.6
	s-1,2.3-1,3.7c0,1.4,0.3,2.6,1,3.7c0.6,1.1,1.5,2,2.6,2.6s2.3,1,3.7,1c1,0,2-0.2,2.9-0.6s1.7-0.9,2.3-1.5c0.7-0.6,1.2-1.4,1.5-2.3
	c0.4-0.9,0.6-1.9,0.6-2.9s-0.2-2-0.6-2.9C121.4,17.3,120.9,16.5,120.2,15.9z M117.8,23.9c-0.8,0.8-1.7,1.2-2.8,1.2
	c-1.1,0-2-0.4-2.8-1.2c-0.7-0.8-1.1-1.7-1.1-2.8c0-1.1,0.4-2,1.1-2.8s1.7-1.2,2.8-1.2c1.1,0,2,0.4,2.8,1.2c0.8,0.8,1.1,1.7,1.1,2.8
	C119,22.2,118.6,23.1,117.8,23.9z"/>
<path class="st0" d="M144.5,14H141c-0.3,0-0.5,0.1-0.6,0.4l-3.3,7l-3.3-7c-0.1-0.2-0.3-0.4-0.6-0.4h-3.5c-0.3,0-0.4,0.1-0.4,0.4
	v13.4c0,0.3,0.1,0.4,0.4,0.4h2.6c0.2,0,0.4-0.1,0.4-0.4v-8.5l3.2,6.6c0.1,0.1,0.1,0.2,0.2,0.3c0.1,0.1,0.2,0.1,0.3,0.1h1.5
	c0.1,0,0.2,0,0.3-0.1s0.1-0.1,0.2-0.3l3.1-6.6v8.5c0,0.3,0.1,0.4,0.4,0.4h2.6c0.2,0,0.4-0.1,0.4-0.4V14.4
	C144.9,14.1,144.8,14,144.5,14z"/>
<path class="st0" d="M16.5,16c-0.6-0.6-1.4-1.1-2.3-1.5c-0.9-0.4-1.8-0.6-2.8-0.6h-2l-3.6,3.8v10c0,0.3,0.1,0.4,0.4,0.4h5.1
	c1.3,0,2.5-0.3,3.6-1c1.1-0.6,2-1.5,2.6-2.6s0.9-2.3,0.9-3.5c0-1-0.2-1.9-0.5-2.8C17.6,17.4,17.1,16.7,16.5,16z M14,23.8
	c-0.8,0.7-1.7,1.1-2.8,1.1h-2v-7.6h2c1.1,0,2,0.4,2.8,1.1s1.1,1.6,1.1,2.8C15.2,22.2,14.8,23.1,14,23.8z"/>
<path class="st0" d="M80,20.3h-4.6c-0.3,0-0.4,0.1-0.4,0.4v2c0,0.2,0.1,0.4,0.4,0.4h1.7v1.7c-0.4,0.2-1,0.3-1.7,0.3
	c-1.1,0-2-0.4-2.8-1.2s-1.1-1.7-1.1-2.8c0-0.7,0.2-1.4,0.5-2s0.8-1.1,1.4-1.5s1.3-0.6,2-0.6c0.9,0,1.6,0.2,2.3,0.7
	c0.1,0.1,0.2,0.1,0.3,0.1c0.1,0,0.2-0.1,0.3-0.2l1.4-2.1c0.2-0.2,0.1-0.4-0.2-0.5c-1.3-0.8-2.7-1.2-4.1-1.2s-2.6,0.3-3.8,0.9
	c-1.1,0.6-2,1.5-2.6,2.6s-0.9,2.4-0.9,3.7c0,1,0.2,2,0.5,2.9c0.4,0.9,0.9,1.7,1.5,2.3c0.6,0.6,1.4,1.2,2.3,1.5
	c0.9,0.4,1.9,0.6,2.9,0.6c0.6,0,1.1-0.1,1.7-0.1l3.3-3.5v-4.1C80.4,20.4,80.3,20.3,80,20.3z"/>
<path class="st0" d="M174.9,27.8l-4.1-13.4c-0.1-0.3-0.2-0.4-0.4-0.4h-3.5c-0.2,0-0.4,0.1-0.4,0.4l-4.1,13.4c-0.1,0.3,0,0.4,0.2,0.4
	h2.8c0.3,0,0.5-0.1,0.5-0.4l0.6-2.3h4.3l0.7,2.3c0.1,0.3,0.2,0.4,0.5,0.4h2.8c0.1,0,0.2,0,0.3-0.1C175,28,175,27.9,174.9,27.8z
	 M167.2,22.4l1.4-4.5l1.4,4.5H167.2z"/>
<rect x="25.5" y="6" transform="matrix(0.7071 -0.7071 0.7071 0.7071 2.4741 21.5691)" class="st0" width="3.5" height="3.5"/>
<rect x="152.5" y="6" transform="matrix(0.7071 -0.7071 0.7071 0.7071 39.6976 111.3452)" class="st0" width="3.5" height="3.5"/>
</svg>
