<svg xmlns="http://www.w3.org/2000/svg" viewBox="0 0 853.56 886">
    <defs>
        <style>
            .cls-1 {
                fill: #202cd8;
            }
            
            .cls-1,
            .cls-2,
            .cls-3 {
                opacity: 0.41;
            }
            
            .cls-2 {
                fill: #e9c019;
            }
            
            .cls-3 {
                fill: #d8819a;
            }
            
            .cls-4 {
                opacity: 0.62;
            }
            
            .cls-5 {
                font-size: 24px;
                font-family: CourierPrime, Courier Prime;
                letter-spacing: -0.02em;
            }
            
            .cls-6 {
                font-family: CourierPrime-Bold, Courier Prime;
                font-weight: 700;
            }
            
            .cls-7 {
                fill: none;
                stroke: #000;
                stroke-miterlimit: 10;
                stroke-width: 11px;
            }
        </style>
    </defs>
    <title>Recurso 3</title>
    <g id="Capa_2" data-name="Capa 2">
        <g id="Chillside">
            <g id="Manchas">
                <path class="cls-1" d="M599.78,574.4s95.33,161.38,149.8,66,108.17-42,103.72-168.9c-2.8-80-32.09-78.7-102-136S788.66,204,525.82,198.6c-145.67-3-29.3,120.39-99.22,194.77S507.71,477.25,599.78,574.4Z" />
                <path class="cls-2" d="M347.46,40s-48.3-64.9-140.81-16.31C160.29,48,90.46-27,41.88,10.89c-78.94,61.54,103.29,146.77-2.95,203.49-85.61,45.72,1.9,81.26-32.77,211.51C-11,490.45,74.67,560.22,133.67,489.22c26.6-32,.27-128,101.22-160.66,107.42-34.79,9.26-132.08,161.21-138.69,66-2.87,162.57-64.93,133.24-107.7C481.55,12.48,416,114.73,347.46,40Z" />
                <path class="cls-3" d="M525.38,857.28s208.23-38.05,152.94-153.79-86.67,70.1-141.5-5.75-55.95-63-156.53-35.59S237.93,388.5,60.4,633.27C-38,768.93,220.89,694.51,246,810.71S372.27,878.82,525.38,857.28Z" />
            </g>
            <g id="Eslogan">
                <g class="cls-4">
                    <path d="M220.05,145c0,.39-.05,1-.15,1.9a10.19,10.19,0,0,1-.8,2.85,11.9,11.9,0,0,1-1.9,3,8.77,8.77,0,0,1-3.29,2.34,12.7,12.7,0,0,1-4.68,1.17q-2.49.15-5,.15H190V55h14q2.92,0,5.85.22a9.5,9.5,0,0,1,5.41,2.26,9.07,9.07,0,0,1,3.51,5.19,30.26,30.26,0,0,1,.58,6.07V88.17q0,2.78-.07,4.53t-.15,3.43a18.2,18.2,0,0,1-.22,2.41A8.3,8.3,0,0,1,217.5,102a7.44,7.44,0,0,1-2,1.9,6.87,6.87,0,0,1-2.19.88l-1.83.37a20.84,20.84,0,0,1,4.31,1.46,8.4,8.4,0,0,1,2.41,1.9,8.53,8.53,0,0,1,1.75,5q.14,2.93.15,8ZM208.36,70.49V68.81a6.61,6.61,0,0,0-.15-1.24q-.73-2.48-2.48-2.92a15.68,15.68,0,0,0-3.8-.44h-1.32v36.39h.88q4.24,0,5.55-1.46t1.32-4.68Zm.88,46.61v-2.34a3.93,3.93,0,0,0-.29-1.46,3.42,3.42,0,0,0-2.7-2.41,21.39,21.39,0,0,0-3.87-.36h-1.75v36.53h1.75q4.53,0,5.7-1.75a9.24,9.24,0,0,0,1.17-5.11Z" />
                    <path d="M249.22,156.41a1.19,1.19,0,0,1-1.18-1l-6.77-41.94h-3.39l-.15,41.65a1.16,1.16,0,0,1-1.32,1.32h-9.35V55h14.1q3.08,0,5.95.22a9.5,9.5,0,0,1,5.36,2.26A9.07,9.07,0,0,1,256,62.67a29.94,29.94,0,0,1,.59,6.07V99.57a30.68,30.68,0,0,1-.59,6.21,8.47,8.47,0,0,1-3.53,5,3.07,3.07,0,0,1-1.32.88l7.64,44.72Zm-10-52.31a17.82,17.82,0,0,0,3.65-.37q1.75-.36,2.48-2.85c.1-.49.17-.9.22-1.24a15.34,15.34,0,0,0,.07-1.83V70.49a13.62,13.62,0,0,0-.07-1.68q-.08-.51-.22-1.24-.73-2.48-2.48-2.92a15.05,15.05,0,0,0-3.65-.44h-1.32V104.1Z" />
                    <path d="M275.12,156.41H265.5V55h9.63q1.33,0,1.33,1.17v99.07Q276.46,156.42,275.12,156.41Z" />
                    <path d="M302,155.24,294.28,79.7l.73,75.4a1.16,1.16,0,0,1-1.32,1.32h-9.21V56.17q0-1.17,1.31-1.17h12.42L306,131l-.73-74.82q0-1.17,1.32-1.17h8.77V156.41H303.13A1,1,0,0,1,302,155.24Z" />
                    <path d="M352.15,156.41h-1.9a3.31,3.31,0,0,1-3.36-2.34l-.58-1.61a8.65,8.65,0,0,1-4.09,3.8,14.51,14.51,0,0,1-6.28,1.32,22.54,22.54,0,0,1-4.82-.51,11.07,11.07,0,0,1-4.82-2.7,12.5,12.5,0,0,1-2.56-3.51,15.41,15.41,0,0,1-1.24-7v-76q0-7,3.51-10.37a15,15,0,0,1,3.8-2.48q2.63-1.31,7.74-1.32a18.37,18.37,0,0,1,5.77.8,14.9,14.9,0,0,1,3.95,1.9,10.9,10.9,0,0,1,2.41,2.26,9.23,9.23,0,0,1,1.17,1.9,9.51,9.51,0,0,1,1,2.92,29.33,29.33,0,0,1,.29,4.82V92.56h-9.78q-1.18,0-1.18-1.46V68.88a9.89,9.89,0,0,0-.56-3.94,6.28,6.28,0,0,0-.92-1.32,2.77,2.77,0,0,0-2.18-.73,6,6,0,0,0-1.13.15,3.29,3.29,0,0,0-1.41.73A3.94,3.94,0,0,0,333.65,66a15.74,15.74,0,0,0-.21,2.78v74.82a6.09,6.09,0,0,0,.7,3.36,3.79,3.79,0,0,0,3.24,1.32l.92-.07a2.36,2.36,0,0,0,1.48-.8,2.62,2.62,0,0,0,1.27-2,24.06,24.06,0,0,0,.14-2.7V121.2h-3c-.75,0-1.13-.44-1.13-1.31v-8.48h15.05Z" />
                </g>
                <g class="cls-4">
                    <path d="M409.41,55a1,1,0,0,1,1.19,1.17v87.68q0,4.68-1.25,6.94a12.74,12.74,0,0,1-2.57,3.43,12.55,12.55,0,0,1-5.66,2.78,25.7,25.7,0,0,1-11.23-.07,11.51,11.51,0,0,1-5.87-3.29,9.7,9.7,0,0,1-2.57-4.75,25.53,25.53,0,0,1-.51-5V55h9.5a1,1,0,0,1,1.17,1.17v86.51a23,23,0,0,0,.15,2.7,2.61,2.61,0,0,0,1.32,2,2.48,2.48,0,0,0,1.53.8c.53,0,.9.07,1.1.07a3.82,3.82,0,0,0,3.22-1.32,4.1,4.1,0,0,0,.66-2q.07-1.17.07-2.34V55Z" />
                    <path d="M435.87,92V66.4a3.2,3.2,0,0,0-3.65-3.51,3.77,3.77,0,0,0-2.41.88q-1.1.88-1.1,3.65V92.56a9.45,9.45,0,0,0,1.46,5.11,24.17,24.17,0,0,0,3.43,4.31,52.38,52.38,0,0,0,3.95,3.58,24.76,24.76,0,0,1,7.89,10.74,25.2,25.2,0,0,1,1.39,8.55v19.87a26.42,26.42,0,0,1-.15,3,8,8,0,0,1-.44,2l-.44,1.32a10.08,10.08,0,0,1-3,3.51,13.87,13.87,0,0,1-3.87,2,20.81,20.81,0,0,1-3.87.88,25.14,25.14,0,0,1-2.7.22,18.05,18.05,0,0,1-5.11-.73,14.05,14.05,0,0,1-4.46-2.19,11.58,11.58,0,0,1-3.22-3.65,10.5,10.5,0,0,1-1.24-5.26V120H428q1.32,0,1.32,1.17v23.38q0,3.65,3.51,3.65a4.2,4.2,0,0,0,2.56-.8q1.1-.8,1.1-3.73V127a17.8,17.8,0,0,0-6.28-14.17,76.62,76.62,0,0,1-8.18-8.26,14.81,14.81,0,0,1-3.65-9.86V66.55a20.39,20.39,0,0,1,.29-4.16,9.69,9.69,0,0,1,.73-2.12,10.19,10.19,0,0,1,3.22-3.95,13.58,13.58,0,0,1,3.87-1.9,15.44,15.44,0,0,1,3.65-.66q1.68-.07,2.56-.07a29.68,29.68,0,0,1,3.36.22,13.8,13.8,0,0,1,3.8,1,14.53,14.53,0,0,1,3.58,2.19A8.68,8.68,0,0,1,446,60.85l.44,1.32q.14.73.29,1.53a10.4,10.4,0,0,1,.15,1.83V93.14h-9.64Q435.87,93.14,435.87,92Z" />
                </g>
                <g class="cls-4">
                    <path d="M496.07,128.36V155.1q0,1.31-1.19,1.32h-9.77V128.36L472.84,55h10.23c.78,0,1.17.34,1.17,1l6.36,57.72L497,56a1.26,1.26,0,0,1,1.32-1h10.08Z" />
                    <path d="M528.37,157.58a18.63,18.63,0,0,1-10.81-2.92q-4.24-2.92-4.24-9.64V66.69a14.87,14.87,0,0,1,1.17-6.21,9.61,9.61,0,0,1,3.29-4,14.39,14.39,0,0,1,4.9-2.12,25.3,25.3,0,0,1,5.85-.66q7.74,0,11.32,3.29t3.58,10.16V145q0,6.87-3.95,9.72T528.37,157.58ZM528.51,63a3.43,3.43,0,0,0-3.36,1.68,7.91,7.91,0,0,0-.88,3.72V143q0,5.25,4.09,5.25,2.48,0,3.29-1.53a7.6,7.6,0,0,0,.8-3.57V68.58a8,8,0,0,0-.88-4A3.24,3.24,0,0,0,528.51,63Z" />
                    <path d="M579.79,55A1,1,0,0,1,581,56.17v87.68q0,4.68-1.25,6.94a12.74,12.74,0,0,1-2.57,3.43A12.55,12.55,0,0,1,571.5,157a25.7,25.7,0,0,1-11.23-.07,11.51,11.51,0,0,1-5.87-3.29,9.7,9.7,0,0,1-2.57-4.75,25.53,25.53,0,0,1-.51-5V55h9.5A1,1,0,0,1,562,56.17v86.51a23,23,0,0,0,.15,2.7,2.61,2.61,0,0,0,1.32,2,2.48,2.48,0,0,0,1.53.8c.53,0,.9.07,1.1.07a3.82,3.82,0,0,0,3.22-1.32,4.1,4.1,0,0,0,.66-2q.07-1.17.07-2.34V55Z" />
                    <path d="M611.16,156.41a1.19,1.19,0,0,1-1.18-1l-6.77-41.94h-3.39l-.15,41.65a1.16,1.16,0,0,1-1.32,1.32H589V55h14.1q3.08,0,5.95.22a9.5,9.5,0,0,1,5.36,2.26,9.07,9.07,0,0,1,3.52,5.19,29.94,29.94,0,0,1,.59,6.07V99.57a30.68,30.68,0,0,1-.59,6.21,8.47,8.47,0,0,1-3.53,5,3.07,3.07,0,0,1-1.32.88l7.64,44.72Zm-10-52.31a17.82,17.82,0,0,0,3.65-.37q1.75-.36,2.48-2.85c.1-.49.17-.9.22-1.24a15.34,15.34,0,0,0,.07-1.83V70.49a13.62,13.62,0,0,0-.07-1.68q-.08-.51-.22-1.24-.73-2.48-2.48-2.92a15.05,15.05,0,0,0-3.65-.44h-1.32V104.1Z" />
                </g>
                <path d="M146.91,386.46h-3.83a6.66,6.66,0,0,1-6.77-4.71l-1.18-3.24a17.42,17.42,0,0,1-8.24,7.65,29.24,29.24,0,0,1-12.66,2.65,45.39,45.39,0,0,1-9.71-1,22.3,22.3,0,0,1-9.71-5.45,25.17,25.17,0,0,1-5.15-7.07q-2.5-4.7-2.5-14.13V208.09q0-14.13,7.06-20.9a30.13,30.13,0,0,1,7.65-5q5.3-2.65,15.6-2.65a37,37,0,0,1,11.63,1.62A30,30,0,0,1,137,185a22,22,0,0,1,4.86,4.56,18.59,18.59,0,0,1,2.35,3.83,19.16,19.16,0,0,1,2.06,5.89,59.07,59.07,0,0,1,.59,9.71v48.86H127.22q-2.39,0-2.39-2.94V210.15q0-5.59-1.14-7.95a12.64,12.64,0,0,0-1.84-2.65q-1.28-1.47-4.39-1.47a12.06,12.06,0,0,0-2.27.29,6.63,6.63,0,0,0-2.84,1.47,7.93,7.93,0,0,0-2.69,4.41,31.7,31.7,0,0,0-.42,5.59v150.7q0,4.71,1.42,6.77,2,2.65,6.53,2.65c.19,0,.8,0,1.84-.15a4.76,4.76,0,0,0,3-1.62,5.28,5.28,0,0,0,2.55-4,48.47,48.47,0,0,0,.29-5.44V315.53h-6c-1.52,0-2.27-.88-2.27-2.65V295.81h30.32Z" />
                <path d="M192.53,388.82q-13.25,0-21.78-5.89t-8.54-19.43V205.74a29.94,29.94,0,0,1,2.35-12.51,19.35,19.35,0,0,1,6.62-8.09,29,29,0,0,1,9.86-4.27,51,51,0,0,1,11.77-1.32q15.6,0,22.81,6.62t7.21,20.46V363.5q0,13.84-7.95,19.57T192.53,388.82Zm.29-190.44q-5,0-6.77,3.38a15.94,15.94,0,0,0-1.77,7.49V359.4q0,10.58,8.24,10.58,5,0,6.62-3.09a15.31,15.31,0,0,0,1.62-7.2V209.55a16.18,16.18,0,0,0-1.77-8.08Q197.23,198.38,192.82,198.38Z" />
                <path d="M275.53,386.46l-2.65-29.14h-15l-2.65,26.79a2.08,2.08,0,0,1-2.35,2.35h-20l20.31-202.21a2.54,2.54,0,0,1,2.65-2.06h22.37L297.6,383.81q.58,2.65-2.36,2.65Zm-15.89-50.63h12.66l-6.48-110.38Z" />
                <path d="M350.87,386.46H308.49V182.19h22.08V367.62h22.66v16.48A2.08,2.08,0,0,1,350.87,386.46Z" />
                <path d="M401.21,256.66V205.15a7.31,7.31,0,0,0-1.77-5.15q-1.77-1.91-5.59-1.91a7.59,7.59,0,0,0-4.86,1.77q-2.21,1.77-2.21,7.36v50.62a19,19,0,0,0,2.94,10.3,48.69,48.69,0,0,0,6.92,8.68,105.52,105.52,0,0,0,7.95,7.21,49.88,49.88,0,0,1,15.89,21.63,50.76,50.76,0,0,1,2.8,17.22v40a53.21,53.21,0,0,1-.29,6,16.13,16.13,0,0,1-.88,4l-.88,2.65a20.3,20.3,0,0,1-6,7.06,27.93,27.93,0,0,1-7.8,4,41.91,41.91,0,0,1-7.8,1.77,50.64,50.64,0,0,1-5.45.44,36.36,36.36,0,0,1-10.3-1.47,28.31,28.31,0,0,1-9-4.42,23.32,23.32,0,0,1-6.48-7.36,21.15,21.15,0,0,1-2.5-10.6v-51.8h19.43q2.65,0,2.65,2.35v47.09Q388,370,395,370a8.46,8.46,0,0,0,5.15-1.62q2.21-1.61,2.21-7.51V327.3q0-17.66-12.66-28.55a154.34,154.34,0,0,1-16.48-16.63,29.84,29.84,0,0,1-7.36-19.87V205.44a41.08,41.08,0,0,1,.59-8.39,19.52,19.52,0,0,1,1.47-4.27,20.52,20.52,0,0,1,6.48-7.95,27.36,27.36,0,0,1,7.8-3.83,31.1,31.1,0,0,1,7.36-1.32q3.38-.15,5.15-.15a59.78,59.78,0,0,1,6.77.44,27.8,27.8,0,0,1,7.65,2.06,29.26,29.26,0,0,1,7.21,4.42,17.48,17.48,0,0,1,5.15,7.5l.88,2.65q.29,1.48.59,3.09a21,21,0,0,1,.29,3.68V259H403.85Q401.2,259,401.21,256.66Z" />
                <g class="cls-4">
                    <path d="M477.4,379.06l-1.12-12.36h-6.37l-1.12,11.36a.88.88,0,0,1-1,1H459.3l8.61-85.74a1.08,1.08,0,0,1,1.12-.87h9.48l8.24,85.49q.25,1.12-1,1.12Zm-6.74-21.47H476l-2.75-46.8Z" />
                    <path d="M506.3,378.06l-6.57-64.52.62,64.4a1,1,0,0,1-1.12,1.12h-7.86V293.44q0-1,1.12-1H503.1l6.61,64.9-.62-63.9q0-1,1.12-1h7.49v86.61H507.3A.88.88,0,0,1,506.3,378.06Z" />
                    <path d="M549,368.33a11.82,11.82,0,0,1-1.76,6.12,10.15,10.15,0,0,1-3,3,9.91,9.91,0,0,1-3.89,1.37,33.32,33.32,0,0,1-4.14.25H523.95V292.45h14.42a17.08,17.08,0,0,1,2.95.37,9.45,9.45,0,0,1,4.08,2.12,8.62,8.62,0,0,1,3.07,4.87,29.12,29.12,0,0,1,.57,5.87Zm-9.36-62.78a18.51,18.51,0,0,0-.12-2.25,3.55,3.55,0,0,0-1.1-2,3.67,3.67,0,0,0-2-.81q-1-.06-2.14-.06h-1v70.64h2a6.73,6.73,0,0,0,1.35-.13q2.2-.37,2.63-1.87a12.28,12.28,0,0,0,.43-3.37Z" />
                </g>
                <path d="M205.76,530.79q2,0,2,2.29V571a44.72,44.72,0,0,1-.89,8.78,17,17,0,0,1-4.45,8.27,20,20,0,0,1-10.18,5.73,44.34,44.34,0,0,1-19.47.13,21.7,21.7,0,0,1-9.8-4.84,29.31,29.31,0,0,1-4.33-6q-2.29-3.94-2.29-12.09V438.65q0-12.22,5.85-18.07a25.63,25.63,0,0,1,6.75-4.33q4.71-2.29,13.36-2.29a31.74,31.74,0,0,1,10.18,1.4,28.89,28.89,0,0,1,6.87,3.31,15.86,15.86,0,0,1,4.2,3.94q1.4,2,2.16,3.31a14.41,14.41,0,0,1,1.65,5.09,67.61,67.61,0,0,1,.38,8.4v42.25H191.25c-1.36,0-2-.85-2-2.54V440.43q0-4.83-1-6.87a9.49,9.49,0,0,0-1.75-2.29,5.41,5.41,0,0,0-4-1.27,10.8,10.8,0,0,0-2,.26,5.85,5.85,0,0,0-2.5,1.27,6.17,6.17,0,0,0-2.25,3.82,40.27,40.27,0,0,0-.25,4.84V568.72c0,1.36,0,2.72.13,4.07a7.07,7.07,0,0,0,1.15,3.56q1.74,2.29,5.49,2.29c.33,0,1,0,1.87-.13a4.23,4.23,0,0,0,2.62-1.4,4.57,4.57,0,0,0,2.24-3.44,41.13,41.13,0,0,0,.25-4.71V530.79Z" />
                <path d="M274.23,418.28V590.87a1.81,1.81,0,0,1-2.06,2h-17V517.3H239.62v73.56q0,2-2.32,2H220.52V416.25h16.77q2.32,0,2.32,2V501h15.53V416.25h17A1.81,1.81,0,0,1,274.23,418.28Z" />
                <path d="M307.8,592.9H291V416.25H307.8q2.32,0,2.32,2V590.87Q310.12,592.91,307.8,592.9Z" />
                <path d="M360.77,592.9H324.12V416.25h19.09V576.61h19.6v14.26A1.8,1.8,0,0,1,360.77,592.9Z" />
                <path d="M410.41,592.9H373.75V416.25h19.09V576.61h19.6v14.26A1.8,1.8,0,0,1,410.41,592.9Z" />
                <path d="M486,594.94q-11.46,0-18.84-5.09T459.79,573V436.61a25.9,25.9,0,0,1,2-10.82,16.73,16.73,0,0,1,5.73-7,25.07,25.07,0,0,1,8.53-3.69A44.07,44.07,0,0,1,486.26,414q13.49,0,19.73,5.73t6.24,17.69V573q0,12-6.87,16.93T486,594.94Zm.25-164.69q-4.33,0-5.85,2.92a13.78,13.78,0,0,0-1.53,6.48V569.5q0,9.15,7.13,9.15,4.33,0,5.73-2.67a13.24,13.24,0,0,0,1.4-6.22V439.9a14,14,0,0,0-1.53-7Q490.08,430.25,486.26,430.25Z" />
                <path d="M575.58,416.25a1.81,1.81,0,0,1,2.06,2V571q0,8.15-2.18,12.09a22.19,22.19,0,0,1-4.47,6,21.87,21.87,0,0,1-9.85,4.84,44.78,44.78,0,0,1-19.57-.13,20.06,20.06,0,0,1-10.23-5.73,16.89,16.89,0,0,1-4.48-8.27A44.48,44.48,0,0,1,526,571V416.25h16.54a1.8,1.8,0,0,1,2,2V569a40.13,40.13,0,0,0,.25,4.71,4.54,4.54,0,0,0,2.29,3.44,4.32,4.32,0,0,0,2.67,1.4c.93.09,1.57.13,1.91.13q3.82,0,5.6-2.29a7.15,7.15,0,0,0,1.14-3.56q.13-2,.13-4.07V416.25Z" />
                <path d="M645.09,416.25v14.22a1.82,1.82,0,0,1-2,2.07H625.49V592.9H606.4V432.54H588.84a1.81,1.81,0,0,1-2-2.07V416.25Z" />
                <path d="M663.93,548.36l-5.6-132.11h15.53a2,2,0,0,1,2.29,2.29l-5.6,129.82ZM673.6,558q2,0,2,2.29V592.9H660.87a1.8,1.8,0,0,1-2-2V558Z" />
            </g>
            <g id="Testo">
                <text class="cls-5" transform="translate(103.87 726.83) scale(1.04 1)">¡Hola! Somos
                    <tspan class="cls-6" x="179.9" y="0">Chillside</tspan>
                    <tspan x="304.45" y="0">, una agencia de </tspan>
                    <tspan x="0" y="28.8">marketing y programación especializada en </tspan>
                    <tspan x="0" y="57.6">publicidad estratégica. Estamos convenci</tspan>
                    <tspan x="553.54" y="57.6">-</tspan>
                    <tspan x="0" y="86.4">dos de que no descansaras hasta llegar a </tspan>
                    <tspan x="0" y="115.2">la cima, déjanos ayudarte a lograrlo.</tspan>
                </text>
                <line class="cls-7" x1="93.84" y1="661.58" x2="698.56" y2="661.58" />
            </g>
        </g>
    </g>
</svg>