<?xml version="1.0" encoding="utf-8"?>
<!-- Generator: Adobe Illustrator 22.1.0, SVG Export Plug-In . SVG Version: 6.00 Build 0)  -->
<svg version="1.1" id="Capa_1" xmlns="http://www.w3.org/2000/svg" xmlns:xlink="http://www.w3.org/1999/xlink" x="0px" y="0px"
	 viewBox="0 0 178 66" style="enable-background:new 0 0 178 66;" xml:space="preserve">
<style type="text/css">
	.st0{fill:#FFFFFF;}
	.st1{fill:none;stroke:#FFFFFF;stroke-width:0.25;stroke-miterlimit:10;}
</style>
<path class="st0" d="M68.4,27.1h0.2c0.3,0,0.6,0,0.8,0.1c0.2,0.1,0.4,0.1,0.5,0.3c0.1,0.1,0.2,0.3,0.2,0.3c0,0.1,0.1,0.2,0.1,0.4
	c0.1,0.5,0.4,2.4,0.8,6c0.4,3.5,0.7,5.7,0.7,6.4v0.2c0,0.6-0.1,0.9-0.4,1.1c-0.2,0.2-0.6,0.2-1,0.2H70c-0.6,0-1-0.1-1.2-0.3
	s-0.4-0.7-0.4-1.5c-0.1-0.5-0.2-1.7-0.4-3.7c-0.2-1.9-0.3-3-0.3-3.2c0-0.1,0-0.1-0.1-0.1h-0.2c-0.1,0-0.1,0-0.1,0.1
	c-0.1,0.3-0.6,1.4-1.4,3.5s-1.4,3.4-1.7,3.9c-0.2,0.4-0.4,0.6-0.6,0.7c-0.2,0.1-0.5,0.2-0.8,0.2c-0.2,0-0.4,0-0.5-0.1
	c-0.2,0-0.3-0.1-0.4-0.1s-0.2-0.1-0.3-0.2l-0.2-0.2c0-0.1-0.1-0.1-0.1-0.3c-0.1-0.1-0.1-0.2-0.1-0.3l-0.9-1.8
	c-0.3-0.8-0.6-1.4-0.9-1.9c-0.2-0.5-0.5-1.2-0.9-2.1c-0.3-0.8-0.5-1.3-0.5-1.3c0-0.1-0.1-0.1-0.2-0.1s-0.1,0-0.1,0.1
	c-0.1,0.6-0.2,1.3-0.3,1.9c-0.1,0.6-0.2,1.2-0.2,1.6c0,0.4-0.1,1-0.2,1.7s-0.1,1.3-0.2,1.8c-0.1,0.6-0.2,1-0.4,1.2s-0.6,0.3-1.1,0.3
	h-0.2c-0.5,0-0.8-0.1-1-0.3s-0.3-0.5-0.3-0.9c0-0.2,0-0.5,0.1-0.7c0-0.1,0.1-1.1,0.4-3.1c0.3-2,0.5-3.9,0.8-5.7s0.4-2.9,0.5-3.2
	c0-0.3,0.2-0.5,0.3-0.7c0.2-0.2,0.3-0.3,0.5-0.3s0.4-0.1,0.8-0.1h0.7c0.1,0,0.3,0.1,0.4,0.2c0.2,0.1,0.3,0.2,0.4,0.4
	c0.1,0.2,0.2,0.5,0.3,0.8c1.2,3.3,2.4,6.2,3.6,8.5c0,0.1,0.1,0.1,0.2,0.1s0.1,0,0.2-0.1c1.9-4.3,3.2-7.2,3.9-8.9v-0.1
	c0-0.1,0.1-0.1,0.1-0.2s0.1-0.1,0.1-0.2c0.1-0.1,0.1-0.2,0.2-0.2c0.1-0.1,0.2-0.1,0.3-0.2c0.1-0.1,0.2-0.1,0.4-0.1
	C68,27.1,68.2,27.1,68.4,27.1L68.4,27.1z M73,34.1v-1.8v-1.8v-1.8c0-0.4,0-0.8,0.1-1s0.1-0.5,0.2-0.6c0.1-0.2,0.2-0.3,0.5-0.4
	c0.2-0.1,0.5-0.1,0.7-0.1h6.3c1.1,0,1.8,0.1,2.1,0.3c0.3,0.2,0.5,0.7,0.5,1.4c0,0.4-0.1,0.7-0.4,0.9s-0.8,0.2-1.6,0.2h-4.6
	c-0.4,0-0.6,0.5-0.6,1.6c0,0.3,0,0.9,0.1,1.7c0,0.1,0.1,0.2,0.2,0.3s0.2,0.1,0.3,0.1h4.4c0.4,0,0.7,0.1,0.9,0.3
	c0.1,0.2,0.2,0.4,0.2,0.8v0.6c0,0.5-0.2,0.8-0.5,0.9c-0.3,0.1-0.8,0.2-1.6,0.2h-3.3c-0.1,0-0.2,0.1-0.3,0.2
	c-0.1,0.1-0.2,0.2-0.2,0.3v2.4c0,0.1,0.1,0.3,0.2,0.4c0.1,0.1,0.3,0.1,0.4,0.1h3.9c1.1,0,1.7,0.1,2,0.2c0.3,0.2,0.5,0.5,0.5,1.1
	s0,0.9-0.1,1.1C83.2,41.9,83,42,82.8,42h-8.4c-0.7,0-1.1-0.4-1.1-1.1v-6.8H73z M92.2,37.2C92.1,37.1,92,37,91.8,37s-0.3,0.1-0.4,0.2
	c-1.6,1.8-2.9,3.3-3.9,4.5c-0.3,0.4-0.9,0.6-1.8,0.6c-0.3,0-0.6,0-0.8-0.1c-0.6-0.1-0.9-0.4-0.9-0.8c0-0.1,0-0.3,0.1-0.4
	c0.3-0.4,2-2.6,5-6.5c0.1-0.1,0.2-0.3,0.2-0.4c0-0.1-0.1-0.3-0.2-0.4c-0.2-0.2-0.9-1.1-2-2.5s-1.9-2.4-2.4-3
	c-0.1-0.2-0.2-0.4-0.2-0.5c0-0.2,0.1-0.4,0.3-0.5c0.2-0.1,0.4-0.3,0.6-0.3c0.7-0.1,1.1-0.2,1.3-0.2H87c0.1,0,0.2,0,0.2,0.1
	c0.1,0,0.1,0.1,0.2,0.1c0,0,0.1,0.1,0.2,0.1c0.1,0.1,0.1,0.1,0.2,0.1l0.2,0.2c0.1,0.1,0.1,0.2,0.2,0.2c0,0,0.1,0.1,0.2,0.3
	c0.1,0.1,0.2,0.2,0.2,0.3c0.5,0.7,1.4,1.8,2.6,3.2c0.1,0.1,0.2,0.2,0.3,0.2c0.1,0,0.2-0.1,0.3-0.2c1.6-1.9,2.6-3.2,3.2-3.9
	c0.2-0.2,0.3-0.4,0.4-0.4c0.1-0.1,0.2-0.2,0.4-0.2c0.2-0.1,0.4-0.1,0.7-0.1c0.1,0,0.4,0,0.8,0.1c0.8,0.1,1.1,0.5,1.1,0.9
	c0,0.3-0.1,0.5-0.2,0.7c-0.2,0.3-1.7,2-4.3,5.3c-0.1,0.1-0.1,0.2-0.1,0.4c0,0.1,0.1,0.3,0.2,0.4c2.5,3,4.2,5,5.1,6.1
	c0.3,0.3,0.4,0.6,0.4,0.8c0,0.6-0.5,0.8-1.6,0.8h-0.2c-0.4,0-0.8,0-1-0.1c-0.3-0.1-0.5-0.3-0.8-0.6C94.8,40.3,93.5,38.8,92.2,37.2
	L92.2,37.2z M103.9,40c0,0.5-0.2,1-0.5,1.3s-0.7,0.5-1.2,0.5c-0.3,0-0.7-0.1-1-0.3c-0.2-0.1-0.4-0.3-0.5-0.6s-0.2-0.6-0.2-0.9v-5.9
	v-5.9v-0.6c0-0.2,0.1-0.3,0.1-0.4s0.1-0.2,0.2-0.3c0.1-0.1,0.2-0.1,0.2-0.2c0,0,0.1-0.1,0.3-0.1h1.3c0.3,0,0.5,0,0.7,0.1
	s0.3,0.2,0.4,0.2c0.1,0.1,0.1,0.2,0.2,0.4c0,0.2,0.1,0.3,0.1,0.3v6.5C104,34.1,103.9,40,103.9,40z M118.6,28.7
	c0,0.4-0.1,0.8-0.3,1.2c-0.2,0.3-0.5,0.5-0.9,0.5c-0.1,0-0.3,0-0.5-0.1s-0.4-0.1-0.6-0.2c-0.2-0.1-0.4-0.2-0.5-0.2
	c-0.8-0.3-1.6-0.4-2.4-0.4c-1,0-1.9,0.2-2.7,0.7c-0.8,0.5-1.4,1.2-1.8,2.1c-0.3,0.7-0.4,1.4-0.4,2.1c0,1,0.3,1.8,0.8,2.6
	s1.3,1.4,2.2,1.7c0.8,0.3,1.5,0.4,2.2,0.4c1,0,1.9-0.2,2.8-0.7c0.5-0.2,0.8-0.3,1-0.3s0.4,0.1,0.6,0.3s0.4,0.5,0.7,0.9
	c0.1,0.2,0.2,0.4,0.2,0.5c0,0.2-0.1,0.3-0.2,0.5s-0.3,0.3-0.4,0.3c-0.1,0.1-0.3,0.2-0.5,0.3c-1.2,0.7-2.6,1.1-4.1,1.1
	c-0.6,0-1.1,0-1.6-0.1c-0.6-0.1-1.3-0.2-1.8-0.4c-0.6-0.2-1.2-0.5-1.9-0.8c-0.7-0.4-1.2-0.8-1.7-1.4c-0.5-0.5-0.9-1.2-1.2-2.1
	c-0.3-0.9-0.5-1.8-0.5-2.9c0-1.7,0.5-3.2,1.5-4.5s2.3-2.2,3.9-2.7c0.8-0.2,1.7-0.4,2.9-0.4c1,0,1.9,0.1,2.8,0.3
	c0.9,0.2,1.6,0.6,2.2,1.1C118.5,28.2,118.6,28.4,118.6,28.7z M128.5,42.3h-0.1c-1,0-2-0.2-3-0.6c-1-0.4-1.9-1-2.6-1.7
	s-1.3-1.6-1.8-2.6s-0.7-2.1-0.7-3.3c0-1,0.3-1.9,0.7-2.8c0.4-0.9,1-1.7,1.7-2.4s1.6-1.2,2.6-1.6c1-0.4,2.1-0.6,3.2-0.6h0.4
	c2.1,0.1,4,0.9,5.5,2.3c1.6,1.5,2.3,3.3,2.3,5.5v0.1c0,1.3-0.4,2.6-1.1,3.7c-0.7,1.2-1.7,2.1-2.9,2.8
	C131.5,42,130.1,42.3,128.5,42.3z M123.6,34.3v0.2c0,1.4,0.5,2.6,1.5,3.5c1,0.9,2.1,1.4,3.2,1.5h0.2c1.4,0,2.6-0.5,3.5-1.4
	c0.9-1,1.4-2.1,1.5-3.3v-0.2c0-1.3-0.5-2.5-1.4-3.4c-0.9-1-2-1.4-3.3-1.4h-0.7c-1.2,0-2.3,0.5-3.1,1.5
	C124.1,32.1,123.6,33.1,123.6,34.3z M146.2,42.3h-0.1c-1,0-2-0.2-3-0.6c-1-0.4-1.9-1-2.6-1.7c-0.7-0.7-1.3-1.6-1.8-2.6
	s-0.7-2.1-0.7-3.3c0-1,0.3-1.9,0.7-2.8c0.4-0.9,1-1.7,1.7-2.4s1.6-1.2,2.6-1.6s2.1-0.6,3.2-0.6h0.4c2.1,0.1,4,0.9,5.5,2.3
	c1.6,1.5,2.3,3.3,2.3,5.5v0.1c0,1.3-0.4,2.6-1.1,3.7c-0.7,1.2-1.7,2.1-2.9,2.8C149.2,42,147.8,42.3,146.2,42.3L146.2,42.3z
	 M141.3,34.3v0.2c0,1.4,0.5,2.6,1.5,3.5s2.1,1.4,3.2,1.5h0.2c1.4,0,2.6-0.5,3.5-1.4c0.9-1,1.4-2.1,1.5-3.3v-0.2
	c0-1.3-0.5-2.5-1.4-3.4c-0.9-1-2-1.4-3.3-1.4h-0.7c-1.2,0-2.3,0.5-3.1,1.5C141.8,32.1,141.3,33.1,141.3,34.3z M163.4,37.2
	c-0.1-0.1-0.2-0.2-0.4-0.2s-0.3,0.1-0.4,0.2c-1.6,1.8-2.9,3.3-3.9,4.5c-0.3,0.4-0.9,0.6-1.8,0.6c-0.3,0-0.6,0-0.8-0.1
	c-0.6-0.1-0.9-0.4-0.9-0.8c0-0.1,0-0.3,0.1-0.4c0.3-0.4,2-2.6,5-6.5c0.1-0.1,0.2-0.3,0.2-0.4c0-0.1-0.1-0.3-0.2-0.4
	c-0.2-0.2-0.9-1.1-2-2.5s-1.9-2.4-2.4-3c-0.1-0.2-0.2-0.4-0.2-0.5c0-0.2,0.1-0.4,0.3-0.5s0.4-0.3,0.6-0.3c0.7-0.1,1.1-0.2,1.3-0.2
	h0.3c0.1,0,0.2,0,0.2,0.1c0.1,0,0.1,0.1,0.2,0.1c0,0,0.1,0.1,0.2,0.1c0.1,0.1,0.1,0.1,0.2,0.1l0.2,0.2c0.1,0.1,0.1,0.2,0.2,0.2
	c0,0,0.1,0.1,0.2,0.3c0.1,0.1,0.2,0.2,0.2,0.3c0.5,0.7,1.4,1.8,2.6,3.2c0.1,0.1,0.2,0.2,0.3,0.2s0.2-0.1,0.3-0.2
	c1.6-1.9,2.6-3.2,3.2-3.9c0.2-0.2,0.3-0.4,0.4-0.4c0.1-0.1,0.2-0.2,0.4-0.2c0.2-0.1,0.4-0.1,0.7-0.1c0.1,0,0.4,0,0.8,0.1
	c0.8,0.1,1.1,0.5,1.1,0.9c0,0.3-0.1,0.5-0.2,0.7c-0.2,0.3-1.7,2-4.3,5.3c-0.1,0.1-0.1,0.2-0.1,0.4c0,0.1,0.1,0.3,0.2,0.4
	c2.5,3,4.2,5,5.1,6.1c0.3,0.3,0.4,0.6,0.4,0.8c0,0.6-0.5,0.8-1.6,0.8h-0.2c-0.4,0-0.8,0-1-0.1c-0.3-0.1-0.5-0.3-0.8-0.6
	C166,40.3,164.8,38.8,163.4,37.2L163.4,37.2z"/>
<g>
	<path class="st0" d="M87.5,51.1C87.5,51.2,87.5,51.2,87.5,51.1c-0.2,0.1-0.2,0.1-0.2,0V47c0-0.1,0-0.1,0.1-0.1s0.1,0,0.1,0.1v0.5
		c0.1-0.1,0.2-0.2,0.2-0.3c0.1-0.1,0.2-0.2,0.3-0.2c0.1-0.1,0.2-0.1,0.4-0.1h0.4c0.2,0,0.3,0,0.5,0.1c0.1,0,0.3,0.1,0.4,0.2l0.3,0.3
		c0.1,0.1,0.2,0.2,0.2,0.4c0.1-0.1,0.1-0.3,0.2-0.4l0.3-0.3c0.1-0.1,0.3-0.1,0.4-0.2c0.1,0,0.3-0.1,0.5-0.1s0.4,0,0.6,0.1
		s0.4,0.2,0.5,0.3s0.3,0.3,0.3,0.5c0.1,0.2,0.1,0.4,0.1,0.6v2.8c0,0.1,0,0.1-0.1,0.1s-0.1,0-0.1-0.1v-2.8c0-0.2,0-0.3-0.1-0.5
		s-0.2-0.3-0.3-0.4c-0.1-0.1-0.3-0.2-0.4-0.3c-0.2-0.1-0.3-0.1-0.5-0.1s-0.3,0-0.5,0.1s-0.3,0.2-0.4,0.3s-0.2,0.2-0.3,0.4
		c-0.1,0.1-0.1,0.3-0.1,0.5v2.8c0,0.1,0,0.1-0.1,0.1s-0.1,0-0.1-0.1v-2.8c0-0.2,0-0.3-0.1-0.5c-0.1-0.1-0.2-0.3-0.3-0.4
		c-0.1-0.1-0.3-0.2-0.4-0.3c-0.2-0.1-0.3-0.1-0.5-0.1s-0.3,0-0.5,0.1s-0.3,0.2-0.4,0.3s-0.2,0.3-0.3,0.4c-0.1,0.1-0.1,0.3-0.1,0.4
		V51.1z M98.8,51.1C98.8,51.2,98.8,51.2,98.8,51.1c-0.2,0.1-0.2,0.1-0.2,0V50l-0.3,0.6c-0.1,0.2-0.3,0.3-0.5,0.4l-0.6,0.3
		c-0.2,0.1-0.4,0.1-0.6,0.1c-0.3,0-0.6-0.1-0.8-0.2c-0.3-0.1-0.5-0.3-0.7-0.5s-0.3-0.5-0.5-0.7c-0.1-0.4-0.1-0.7-0.1-1
		s0.1-0.6,0.2-0.9c0.1-0.3,0.3-0.5,0.5-0.7s0.4-0.4,0.7-0.5c0.3-0.1,0.5-0.2,0.8-0.2c0.2,0,0.4,0,0.6,0.1l0.6,0.3
		c0.2,0.1,0.3,0.3,0.4,0.4c0.1,0.2,0.2,0.3,0.3,0.6V47c0-0.1,0-0.1,0.1-0.1s0.1,0,0.1,0.1C98.8,47,98.8,51.1,98.8,51.1z M98.5,49
		c0-0.3,0-0.5-0.1-0.8c-0.1-0.2-0.2-0.5-0.4-0.7c-0.2-0.2-0.4-0.3-0.6-0.4c-0.2-0.1-0.5-0.2-0.7-0.2c-0.3,0-0.5,0.1-0.7,0.2
		c-0.2,0.1-0.4,0.3-0.6,0.4c-0.2,0.2-0.3,0.4-0.4,0.7c-0.1,0.2-0.1,0.5-0.1,0.8s0,0.5,0.1,0.8c0.1,0.2,0.2,0.5,0.4,0.7
		c0.2,0.2,0.4,0.3,0.6,0.4c0.2,0.1,0.5,0.2,0.7,0.2c0.3,0,0.5-0.1,0.7-0.2c0.2-0.1,0.4-0.3,0.6-0.4c0.2-0.2,0.3-0.4,0.4-0.7
		C98.5,49.6,98.5,49.3,98.5,49z M100.9,53l-0.2,0.1V53l0.7-1.7l-1.7-4.1v-0.1h0.1c0,0,0.1,0,0.1,0.1l1.6,3.9l1.6-3.8l0.1-0.1h0.2
		v0.2C103.4,47.4,100.9,53,100.9,53z M108.5,51.1C108.5,51.2,108.5,51.2,108.5,51.1c-0.2,0.1-0.2,0.1-0.2,0V50l-0.3,0.6
		c-0.1,0.2-0.3,0.3-0.5,0.4l-0.6,0.3c-0.2,0.1-0.4,0.1-0.6,0.1c-0.3,0-0.6-0.1-0.8-0.2c-0.3-0.1-0.5-0.3-0.7-0.5s-0.3-0.5-0.5-0.7
		c-0.1-0.3-0.2-0.6-0.2-0.9c0-0.3,0.1-0.6,0.2-0.9c0.1-0.3,0.3-0.5,0.5-0.7s0.4-0.4,0.7-0.5c0.3-0.1,0.5-0.2,0.8-0.2
		c0.2,0,0.4,0,0.6,0.1l0.6,0.3c0.2,0.1,0.3,0.3,0.4,0.4c0.1,0.2,0.2,0.3,0.3,0.6v-1.1c0-0.1,0-0.1,0.1-0.1s0.1,0,0.1,0.1
		C108.4,47.1,108.5,51.1,108.5,51.1z M108.2,49c0-0.3,0-0.5-0.1-0.8c-0.1-0.2-0.2-0.5-0.4-0.7c-0.2-0.2-0.4-0.3-0.6-0.4
		c-0.2-0.1-0.5-0.2-0.7-0.2c-0.3,0-0.5,0.1-0.7,0.2s-0.4,0.3-0.6,0.4c-0.2,0.2-0.3,0.4-0.4,0.7c-0.1,0.2-0.1,0.5-0.1,0.8
		s0,0.5,0.1,0.8c0.1,0.2,0.2,0.5,0.4,0.7c0.2,0.2,0.4,0.3,0.6,0.4c0.2,0.1,0.5,0.2,0.7,0.2c0.3,0,0.5-0.1,0.7-0.2
		c0.2-0.1,0.4-0.3,0.6-0.4c0.2-0.2,0.3-0.4,0.4-0.7C108.2,49.6,108.2,49.3,108.2,49z M110.1,51.1C110.1,51.2,110.1,51.2,110.1,51.1
		c-0.2,0.1-0.2,0.1-0.2,0V47c0-0.1,0-0.1,0.1-0.1s0.1,0,0.1,0.1v0.6c0.2-0.3,0.4-0.5,0.7-0.6c0.3-0.2,0.6-0.2,0.9-0.2s0.5,0,0.7,0.1
		s0.4,0.2,0.6,0.4s0.3,0.4,0.4,0.6c0.1,0.2,0.1,0.5,0.1,0.7v2.5c0,0.1,0,0.1-0.1,0.1s-0.1,0-0.1-0.1v-2.5c0-0.2-0.1-0.4-0.1-0.6
		c-0.1-0.2-0.2-0.4-0.3-0.5c-0.1-0.1-0.3-0.2-0.5-0.3s-0.4-0.1-0.6-0.1s-0.4,0-0.6,0.1s-0.4,0.2-0.5,0.3s-0.3,0.3-0.3,0.5
		c-0.1,0.2-0.1,0.4-0.1,0.6v2.5H110.1z M119.4,51C119.5,51,119.5,51,119.4,51C119.5,51.1,119.5,51.1,119.4,51c0.1,0.2,0.1,0.2,0,0.2
		h-0.2c-0.2,0-0.3,0-0.5-0.1c-0.1,0-0.2-0.1-0.3-0.2c-0.1-0.1-0.2-0.2-0.2-0.4s-0.1-0.4-0.1-0.6v-2.8h-0.6c-0.1,0-0.1,0-0.1-0.1
		s0-0.1,0.1-0.1h0.7v-1.5c0-0.1,0-0.1,0.1-0.1s0.1,0,0.1,0.1v1.4h1.1V47h-1.1v2.8c0,0.2,0,0.4,0.1,0.5c0,0.1,0.1,0.2,0.2,0.3
		s0.2,0.1,0.3,0.2S119.3,51,119.4,51z M120.2,49c0-0.3,0.1-0.6,0.2-0.9c0.1-0.3,0.3-0.5,0.5-0.7s0.4-0.4,0.7-0.5
		c0.3-0.1,0.6-0.2,0.9-0.2s0.6,0.1,0.9,0.2c0.3,0.1,0.5,0.3,0.7,0.5s0.4,0.5,0.5,0.7c0.1,0.3,0.2,0.6,0.2,0.9c0,0.3-0.1,0.6-0.2,0.9
		c-0.1,0.3-0.3,0.5-0.5,0.7s-0.4,0.4-0.7,0.5c-0.3,0.1-0.6,0.2-0.9,0.2s-0.6-0.1-0.9-0.2c-0.3-0.1-0.5-0.3-0.7-0.5s-0.4-0.5-0.5-0.7
		C120.3,49.6,120.2,49.3,120.2,49z M120.5,49c0,0.3,0.1,0.5,0.2,0.8c0.1,0.2,0.3,0.5,0.4,0.6c0.2,0.2,0.4,0.3,0.6,0.4
		c0.2,0.1,0.5,0.2,0.8,0.2s0.5-0.1,0.8-0.2c0.2-0.1,0.5-0.3,0.6-0.4s0.3-0.4,0.4-0.6c0.1-0.2,0.2-0.5,0.2-0.8s-0.1-0.5-0.2-0.8
		c-0.1-0.2-0.3-0.5-0.4-0.6c-0.2-0.2-0.4-0.3-0.6-0.4c-0.2-0.1-0.5-0.2-0.8-0.2s-0.5,0.1-0.8,0.2c-0.2,0.1-0.5,0.3-0.6,0.4
		c-0.2,0.2-0.3,0.4-0.4,0.6C120.5,48.5,120.5,48.8,120.5,49z M125.9,47c0-0.1,0-0.1,0.1-0.1s0.1,0,0.1,0.1v2.6
		c0,0.2,0.1,0.4,0.1,0.6c0.1,0.2,0.2,0.3,0.3,0.5c0.1,0.1,0.3,0.2,0.5,0.3s0.4,0.1,0.6,0.1c0.2,0,0.4,0,0.6-0.1
		c0.2-0.1,0.4-0.2,0.5-0.3s0.3-0.3,0.3-0.5c0.1-0.2,0.1-0.4,0.1-0.6v-2.5c0-0.1,0-0.1,0.1-0.1s0.1,0,0.1,0.1v4.1
		c0,0.1,0,0.1-0.1,0.1s-0.1,0-0.1-0.1v-0.8c-0.2,0.3-0.4,0.5-0.7,0.6c-0.3,0.2-0.6,0.2-0.9,0.2c-0.3,0-0.5,0-0.7-0.1
		s-0.4-0.2-0.6-0.4c-0.2-0.2-0.3-0.4-0.4-0.6c-0.1-0.2-0.1-0.5-0.1-0.7V47H125.9L125.9,47z M133.7,47.1l0.1,0.1v0.1h-0.1h-0.1
		c-0.1-0.1-0.3-0.1-0.4-0.2c-0.2-0.1-0.3-0.1-0.5-0.1s-0.4,0-0.5,0.1c-0.2,0.1-0.3,0.2-0.4,0.3c-0.1,0.1-0.2,0.3-0.3,0.5
		s-0.1,0.4-0.1,0.6V51c0,0.1,0,0.1-0.1,0.1s-0.1,0-0.1-0.1v-4.1c0-0.1,0-0.1,0.1-0.1s0.1,0,0.1,0.1v0.7c0-0.1,0.1-0.3,0.2-0.4
		l0.3-0.3c0.1-0.1,0.2-0.1,0.4-0.2c0.1,0,0.3-0.1,0.4-0.1c0.2,0,0.4,0,0.6,0.1C133.4,46.9,133.5,47,133.7,47.1L133.7,47.1z
		 M137.1,47.6c-0.1-0.2-0.3-0.3-0.5-0.5c-0.2-0.1-0.4-0.2-0.7-0.2c-0.1,0-0.3,0-0.4,0.1c-0.1,0-0.2,0.1-0.3,0.2
		c-0.1,0.1-0.2,0.2-0.2,0.3c-0.1,0.1-0.1,0.2-0.1,0.4c0,0.1,0,0.2,0.1,0.3c0,0.1,0.1,0.2,0.2,0.2c0.1,0.1,0.2,0.1,0.2,0.2
		c0.1,0,0.2,0.1,0.3,0.1s0.2,0.1,0.2,0.1h0.2c0.4,0.1,0.8,0.3,1,0.5s0.3,0.5,0.3,0.8c0,0.2,0,0.4-0.1,0.5c-0.1,0.2-0.2,0.3-0.3,0.4
		c-0.1,0.1-0.3,0.2-0.5,0.2c-0.2,0.1-0.4,0.1-0.5,0.1c-0.4,0-0.6-0.1-0.9-0.2c-0.2-0.2-0.4-0.4-0.5-0.6v-0.1v-0.1h0.2v0.1
		c0,0.1,0.1,0.2,0.2,0.3c0.1,0.1,0.2,0.2,0.3,0.2c0.1,0.1,0.2,0.1,0.3,0.1h0.3c0.1,0,0.2,0,0.4-0.1c0.1,0,0.3-0.1,0.4-0.2l0.3-0.3
		c0.1-0.1,0.1-0.3,0.1-0.5s0-0.3-0.1-0.4l-0.3-0.3c-0.1-0.1-0.3-0.2-0.4-0.2c-0.2-0.1-0.3-0.1-0.4-0.1c-0.1,0-0.3-0.1-0.4-0.1
		c-0.1-0.1-0.3-0.1-0.4-0.2l-0.3-0.3c-0.1-0.1-0.1-0.3-0.1-0.4c0-0.2,0-0.3,0.1-0.5c0.1-0.1,0.1-0.3,0.3-0.4
		c0.1-0.1,0.2-0.2,0.4-0.2c0.2-0.1,0.3-0.1,0.5-0.1h0.4c0.1,0,0.3,0.1,0.4,0.1c0.1,0.1,0.2,0.1,0.3,0.2c0.1,0.1,0.2,0.2,0.3,0.4v0.2
		h-0.1C137.1,47.7,137.1,47.7,137.1,47.6C137.1,47.7,137.1,47.6,137.1,47.6z"/>
</g>
<path class="st1" d="M144.5,50.7v-3.1h-3.7v3h2.6l0.1-2.1h-1.7v1h0.7 M80.2,50.7v-3.1h3.7v3h-2.6l-0.1-2.1h1.7v1h-0.7"/>
<g>
	<path class="st0" d="M24.4,23.6l0.3,0.3c0.2,0.1,0.5,0.1,0.7-0.1s0.1-0.4-0.1-0.5c0-0.1,0.1-0.1,0.1-0.2s-0.1-0.2-0.2-0.3h-0.1
		C24.5,22.7,24.2,23.2,24.4,23.6z"/>
	<path class="st0" d="M24.2,21.7c0,0-0.1,0-0.1,0.1c-0.1,0-0.1,0.1-0.1,0.1c-0.7,0.6-0.9,1.5-0.4,2.3c0.2,0.3,0.5,0.6,0.8,0.7
		c0.5,0.3,1.1,0.3,1.6-0.2c0.3-0.3,0.8-0.7,0.8-1.2s0-0.9-0.3-1.3c-0.2-0.3-0.4-0.4-0.6-0.5C25.3,21.4,24.7,21.5,24.2,21.7z
		 M25.5,22.2c0.1,0,0.2,0.1,0.3,0.2c0.4,0.5,0.2,1.2-0.2,1.6c-0.2,0.3-0.5,0.5-0.9,0.4c-0.1,0-0.2-0.1-0.2-0.1
		c-0.2-0.1-0.4-0.2-0.5-0.4c-0.4-0.5-0.3-1.3,0.3-1.6C24.7,22.2,25.2,22.1,25.5,22.2z M26.4,18.1c-0.3-0.1-0.6,0.3-0.3,0.5
		c0.2,0.2,0.3,0.3,0.5,0.4c1.4,0.7,3.4-0.2,3-2c0-0.1-0.1-0.2-0.2-0.2c-0.2-0.1-0.5,0.1-0.4,0.4c0.2,1.3-1.3,1.7-2.2,1.2
		C26.7,18.4,26.6,18.3,26.4,18.1C26.4,18.2,26.4,18.1,26.4,18.1z"/>
	<path class="st0" d="M32.2,33.5c0-0.2,0-0.5,0.1-0.7c-0.9,0.3-2.5-0.4-3.1-0.9c-1.1-1.1-0.8-2.9-0.6-4.3h-0.5
		c-0.1,0.8-0.2,1.6-0.4,2.4C27.4,32.6,30,33.6,32.2,33.5z M31,55.1c-0.1-5.6-0.6-11.1-1.3-16.6c-0.9,0.1-1.9,0.1-2.8,0.2
		c-0.4,0-0.8,0-1.3,0.1c0.5,5.5,0.4,11,0.4,16.5C27.6,55.1,29.3,55.1,31,55.1z M24.1,24c0.1,0.2,0.3,0.3,0.5,0.4
		c0.1,0,0.1,0.1,0.2,0.1c0.4,0.1,0.7-0.2,0.9-0.4c0.4-0.4,0.5-1.1,0.2-1.6c-0.1-0.1-0.2-0.2-0.3-0.2c-0.4-0.1-0.8,0-1.2,0.1
		C23.8,22.7,23.7,23.4,24.1,24z M24.9,22.7L24.9,22.7c0.2,0,0.3,0.1,0.3,0.3c0,0.1,0,0.1-0.1,0.2c0.2,0.1,0.3,0.3,0.1,0.5
		s-0.5,0.2-0.7,0.1c-0.1,0-0.2-0.1-0.3-0.3C24.2,23.2,24.5,22.7,24.9,22.7z M23.4,19.1c0.3-0.1,0.3-0.5,0.4-0.7c0-0.2,0-0.4-0.3-0.4
		c-0.2-0.1-0.4-0.1-0.6,0h-0.1C22,18.3,22.6,19.5,23.4,19.1z M22.9,17.2h0.5c0.6-0.3,1.2-0.7,1.8-1c0.6-0.3,1.3-0.5,2-0.8
		c1.1-0.5,2.1-1.1,3.3-1.5c-0.1-0.6-0.3-1.1-0.5-1.7c-2.6,0.9-4.9,2.2-7.2,3.6C22.8,16.3,22.9,16.8,22.9,17.2z M21.1,19.7
		C21.1,19.8,21.1,19.8,21.1,19.7c0,1.2,0.3,2.4,1.1,3.3c0.1-0.9,0.5-1.7,1.3-2.2c-0.1-0.4-0.3-0.7-0.4-1.1c-0.4,0-0.8-0.1-1.1-0.5
		C21.7,19.5,21.4,19.6,21.1,19.7z"/>
	<path class="st0" d="M23.5,24.8c0.9,0.9,2.3,0.8,3.2-0.1c0.8-0.8,0.9-2,0.2-2.9c-0.8-1-2-1-3-0.4C22.7,22.1,22.5,23.8,23.5,24.8z
		 M23.9,21.9l0.1-0.1l0.1-0.1c0.6-0.2,1.2-0.3,1.7,0c0.2,0.1,0.4,0.3,0.6,0.5c0.3,0.4,0.3,0.8,0.3,1.3s-0.5,0.9-0.8,1.2
		c-0.5,0.4-1.1,0.4-1.6,0.2c-0.3-0.2-0.6-0.4-0.8-0.7C23,23.4,23.2,22.4,23.9,21.9z M29.3,27.4c-0.2,1.1-0.6,3,0.3,3.8
		c0.5,0.5,1.1,0.7,1.8,0.8c0.2,0,0.7,0.2,0.9,0.1h0.2v-0.5c-0.7,0-1.7-0.4-2.1-0.9c-0.7-0.8-0.5-2.3-0.3-3.3
		C29.8,27.3,29.5,27.4,29.3,27.4z M21.7,14c0.2,0.2,0.4,0.4,0.6,0.7c0.1,0.2,0.2,0.3,0.2,0.5c2.3-1.4,4.6-2.7,7.1-3.6
		c-0.2-0.4-0.3-0.7-0.5-1.1C26.5,11.4,24.1,12.6,21.7,14z M22,42.6c1.1-0.1,2.1-0.1,3.2-0.1c0-0.6-0.1-1.1-0.1-1.7
		c-1.1-0.3-2.2-0.3-3.4-0.3c0.1,0.3,0.1,0.6,0.2,0.9v0.2C22,41.9,22,42.2,22,42.6z M21.4,7.9c2.5-0.2,5.6-0.3,6.8,2.3l0.9-0.3h0.3
		c0.2-3.3-2.3-5.7-5.4-6.3c-1.8-0.3-3.7,0-5.5,0.5c-1,0.3-2,0.8-3,1C14,5.4,12.8,5,11.4,4.5l0.1,0.3C12.9,8.8,18,8.2,21.4,7.9z"/>
	<path class="st0" d="M13.4,11.1c1.7-0.4,3.3-1.2,5.1-1.6c2.6-0.5,6.3-0.8,8.5,1c0.2-0.1,0.4-0.2,0.6-0.2c-1.9-3.7-8-1.3-11.3-1.7
		l-1.5-0.3c-2.6,0.8-5.1,1.1-7.9,0.6L7,9.1C7.7,11.5,11.7,11.6,13.4,11.1z"/>
	<path class="st0" d="M7,13.7c1.1,0.3,2.2,0.1,3.3-0.1c2-0.3,3.8-1.1,5.7-1.7c1.8-0.6,3.6-1,5.5-1.2c1.3-0.2,2.6-0.3,3.6,0.7
		c0.4-0.2,0.9-0.4,1.3-0.6C24.5,9.4,21.2,9.6,19,10c-2,0.4-3.7,1.2-5.7,1.7c-1.2,0.3-3.1,0.3-4.7-0.3C8,11.8,7,12,6.3,12.1
		c-1,0.2-2,0.1-2.9-0.2L3.5,12C4.6,12.7,5.8,13.4,7,13.7z"/>
	<path class="st0" d="M7.8,18.9c0.3-0.1,0.6-0.2,0.8-0.4c1.6-0.9,2.9-2.3,4.1-3.6c1.9-2.2,6.4-3.3,8.8-1.5c1-0.6,2-1.2,3-1.7
		c-1.6-1.2-4.9-0.1-6.6,0.3c-1.8,0.5-3.5,1.3-5.4,1.7c-1.5,0.4-3.4,0.9-5,0.6c-0.4-0.1-0.8-0.2-1.1-0.3c-0.5,0.4-0.8,1-1.1,1.6
		c-0.7,1.8-1.8,3.3-3.6,3.8l0.2,0.1c1.5,0.5,4,0.1,5.7-0.6C7.6,18.9,7.8,18.9,7.8,18.9z M25,38.7c-1.2,0.1-2.4,0.2-3.5,0.5
		c0,0.2,0.1,0.4,0.1,0.7c1.2-0.1,2.3,0,3.4,0.2V38.7z M35.4,27.6c-0.2,0-0.4,0-0.5,0.1c0.2,1.1,0.3,2.2,0.3,3.4
		c0.2,0,0.4-0.1,0.6-0.1C35.7,29.8,35.7,28.7,35.4,27.6z"/>
	<path class="st0" d="M20.3,13.7c-0.2,1.3,0.8,3.1,2,3.7c0-0.8-0.1-1.6-0.5-2.4C21.4,14.5,20.9,14.1,20.3,13.7z M43.7,25.7
		c0.3,0,2.2,0.3,3.3,0.6c0.1-0.3,0.1-0.6,0.1-0.9c-1-0.1-3.4-0.3-3.4-0.3c-0.1,0-0.1-0.1-0.1-0.1c0-0.1,0.1-0.1,0.1-0.1
		c0.1,0,2.3,0.2,3.4,0.3c-0.1-0.4-0.4-0.8-1-0.9c-1.3-0.4-2.6-0.4-3.8-0.2c-0.4-0.6-1.2-1.5-1.9-1.1c-0.8,0.4-0.2,1.5,0.2,2.1
		c-0.9,1.2-2.6,2.1-4.4,2.5c0.2,1.1,0.3,2.2,0.3,3.3c2.2-0.7,4.3-2,5.6-3.7c0.9,0.4,1.7,0.4,2.7,0.4c0.9,0,1.8-0.1,2.2-0.9
		c0,0,0-0.1,0.1-0.1c-0.9-0.2-2.5-0.5-3.2-0.6c-0.1,0-0.1-0.1-0.1-0.1C43.5,25.7,43.6,25.7,43.7,25.7z M25.8,27.3
		c-0.3-0.1-0.6-0.2-0.8-0.3c-0.2,0.4-0.4,0.9-0.7,1.3c0.4,0.2,0.7,0.4,1.1,0.5C25.6,28.4,25.7,27.9,25.8,27.3z M24.4,26.8
		c-0.1,0-0.2-0.1-0.3-0.2c-0.3,0.4-0.7,0.7-1.1,1c0.2,0.1,0.5,0.3,0.7,0.4C24,27.7,24.2,27.3,24.4,26.8z M27.1,29.6
		c0.1-0.7,0.3-1.4,0.3-2c-0.3,0-0.7,0-1-0.1c-0.2,0.6-0.3,1.1-0.5,1.7C26.4,29.3,26.7,29.4,27.1,29.6z M22.5,24.5
		c-0.1-0.2-0.2-0.4-0.2-0.6c-0.4-0.3-0.8-0.7-1-1.2c-0.8,0.6-1.4,1.5-1.6,2.6C20.7,25.5,21.7,25.2,22.5,24.5z M23.9,25.8
		c-0.4-0.2-0.8-0.4-1.1-0.8c-0.2,0.2-0.4,0.3-0.7,0.5c-0.4,0.6-0.3,1.3-0.2,2C22.8,27.2,23.6,26.6,23.9,25.8z M16.8,19.6
		c1,0.4,2,0.3,2.9,0c0.7-0.2,1.3-0.5,2-0.9v-0.3c-0.9,0-1.7-0.2-2.5-0.6c-0.5,0-1.2,0.5-1.6,0.8C17.4,18.9,17.1,19.3,16.8,19.6z
		 M18.3,17c-0.5-0.5-1-1.1-1.3-1.8c-0.1-0.2,0-0.4,0.2-0.5c0.9-0.4,1.7-0.4,2.6-0.1c-0.1-0.5-0.1-1,0-1.4c-2.3-0.6-5.2,0.4-6.6,2
		c-1.4,1.6-3,3.3-5,4.1c-1,1.8,0,3.9,0.1,5.8c0,0.4-0.1,0.8-0.2,1.2c2.5-1.5,3.4-4.7,5.3-6.9C14.4,18.1,16.4,17.2,18.3,17z
		 M20.9,22.1c-0.2-0.7-0.4-1.4-0.4-2.1c-0.2,0.1-0.3,0.1-0.5,0.2c-0.6,0.6-0.9,1.4-1.2,2.2c0,0.1,0,0.2-0.1,0.3h0.8
		C20,22.5,20.5,22.4,20.9,22.1z"/>
	<path class="st0" d="M19.9,15.4c-0.7-0.4-1.4-0.4-2.2-0.2c0.9,1.5,2.2,2.6,4,2.5C20.9,17.3,20.3,16.4,19.9,15.4
		C19.9,15.5,19.9,15.5,19.9,15.4z M26.4,18.1c-0.3-0.1-0.6,0.2-0.4,0.5c0.2,0.2,0.4,0.3,0.6,0.4c-0.2-0.1-0.4-0.2-0.5-0.4
		C25.8,18.4,26.1,18,26.4,18.1z M29,17.2c-0.1-0.3,0.2-0.4,0.4-0.4C29.3,16.8,28.9,16.9,29,17.2c0.2,1.2-1.3,1.7-2.2,1.2
		C27.8,19,29.3,18.5,29,17.2z M23.5,24.2c0.2,0.3,0.5,0.6,0.8,0.7C24,24.7,23.7,24.5,23.5,24.2c-0.5-0.8-0.2-1.7,0.5-2.3l0.1-0.1
		l0.1-0.1c0.5-0.2,1.2-0.3,1.6-0.1c-0.5-0.2-1.1-0.2-1.7,0c0,0-0.1,0-0.1,0.1c-0.1,0-0.1,0.1-0.1,0.1C23.2,22.4,23,23.4,23.5,24.2z
		 M25.7,24c-0.2,0.3-0.5,0.5-0.9,0.4c-0.1,0-0.1,0-0.2-0.1c0.1,0,0.1,0.1,0.2,0.1C25.2,24.5,25.5,24.3,25.7,24
		c0.4-0.4,0.6-1.1,0.2-1.6c-0.1-0.1-0.2-0.2-0.3-0.2c0.1,0.1,0.2,0.1,0.3,0.2C26.2,22.9,26.1,23.6,25.7,24z"/>
	<path class="st0" d="M24.4,23.5l0.3,0.3C24.6,23.8,24.5,23.7,24.4,23.5c-0.2-0.4,0.2-0.9,0.6-0.8h0.1H25
		C24.5,22.7,24.2,23.2,24.4,23.5z M25.3,23.2C25.2,23.2,25.2,23.2,25.3,23.2z"/>
	<path class="st0" d="M24.1,17.5c0.1,0.1,0.2,0.3,0.3,0.4c0.1,0.6-0.1,1.4-0.6,1.7c0.1,0.3,0.3,0.6,0.4,1c1.3-0.5,2.6-0.2,3.4,1.1
		c0.8,1.3,0.4,2.9-0.8,3.8c-0.6,0.5-1.5,0.6-2.2,0.5c0,0,0,0.1-0.1,0.1c2.1,1.2,3.1,0.7,7.7,0.5c0.9,0,1.8,0.3,2.3-0.6
		c0.1-0.2,0.2-0.5,0.3-0.8c-0.6,0.2-1.3,0.2-1.9,0.1c-0.8-0.1-1.8-0.7-1.9-1.6c-0.1-0.4,0.5-0.6,0.6-0.2c0.2,1.3,2.2,1.4,3.3,1
		c0-0.8-0.1-1.6-0.4-2.3c-0.8-0.1-1.7-0.6-2.1-0.8h-0.1c-0.3-0.2-0.5-0.3-0.7-0.6c-0.1-0.3-0.1-0.6,0-0.9c0.2-0.6,1-0.5,1.3,0
		c0.2,0.3-0.3,0.7-0.5,0.3c-0.1-0.2-0.3,0-0.3,0.2s0.3,0.3,0.4,0.5c0.5,0.2,0.9,0.4,1.4,0.6c0.3,0.1,0.9,0.5,1.4,0.4
		c0.3-0.1,0.2-0.3,0.2-0.6c-0.2-1.3-0.6-2.5-1.4-3.5l-3-3.6c-0.2,0.1-0.2,0.1-0.4,0.1c-1.5,0.5-2.7,1.3-4.1,1.9
		C25.8,16.6,25,17.1,24.1,17.5z M29,17.2c-0.1-0.3,0.3-0.5,0.5-0.3c0.1,0,0.1,0.1,0.2,0.2c0.3,1.8-1.7,2.7-3,2
		c-0.2-0.1-0.4-0.2-0.6-0.4c-0.3-0.3,0.1-0.6,0.4-0.5c0,0,0.1,0,0.1,0.1l0.3,0.3C27.8,18.9,29.2,18.5,29,17.2z M32.1,28.6
		C32,28.1,32,27,31.3,27.1h-0.1c-0.2,0-0.3,0-0.5,0.1c-0.1,0.8-0.3,2,0,2.7c0.2,0.4,0.7,0.9,1.2,1.2C32.1,30.3,32.2,29.5,32.1,28.6z
		 M32.4,31.2h0.5c0.6,0,1.1,0,1.7-0.1c0-1.1-0.1-2.2-0.3-3.3v-0.1c-0.7,0-1.3-0.1-1.9-0.2v0.1C32.8,28.9,32.7,29.9,32.4,31.2z"/>
	<path class="st0" d="M26.4,18.1C26.4,18.1,26.4,18.2,26.4,18.1c0.2,0.2,0.3,0.3,0.5,0.3l-0.3-0.3C26.4,18.2,26.4,18.1,26.4,18.1z
		 M32,39.8c0.1-0.1,0.3-0.2,0.4-0.3l-0.1-0.1c0-0.1-0.1-0.1-0.1-0.2c-0.6,0.2-1.2,0.3-1.8,0.3c0,0.1,0.1,0.5,0.2,1.3
		C31.1,40.8,31.7,40.1,32,39.8z M31.9,38.2c-0.5,0-1.7,0-1.6,0.2c0.1,0.3,0.1,0.5,0.1,0.6c0.6,0,1.2-0.1,1.8-0.3
		C32,38.5,32,38.2,31.9,38.2z M40.7,50C40.6,50,40.6,50,40.7,50c-0.1-0.2-0.1-0.2,0-0.2h1.6v-0.3c-1.3-0.1-1.5,0-1.6,0
		s-0.1,0-0.1-0.1s0-0.1,0.1-0.1h1.5c-0.2-0.7-1.1-0.8-1.8-0.7c-0.4,0.1-0.9,0.4-1.3,0.6c-1.2,0.5-1.5,0.6-1.4-0.2
		c0.1-2.6,1.4-5.4,1-8c-0.2-1.2-1.1-1.1-2.3-1.1h-3.7c-0.2,0.1-0.4,0.3-0.6,0.5c-0.2,0.2-0.4,0.4-0.6,0.5c-0.2,0.2-0.6,0.4-0.9,0.4
		c0.1,0.9,0.2,1.7,0.3,2.6c0.3,3.5,0.4,7.2,0.5,10.8v0.9c0,0.1,0,0.1-0.1,0.1h-0.1c-0.9,0-1.9,0-2.8,0.1c-0.9,0-1.9,0-2.8,0.1h-0.1
		c-0.1,0-0.2,0-0.2,0.1s0,0.2,0.1,0.2c0.1,0,0.1,0.1,0.2,0.1c0.9,0,1.9,0,2.8-0.1c0.9,0,1.9,0,2.8-0.1c0.1,0,0.2,0,0.2-0.1
		c0.2-0.1,0.2-0.2,0.2-0.4v-2.5c0-3-0.1-6.2-0.4-9.1c1.1,0,2.2,0,3.3,0.1c0.3,0,0.2,0.9,0.1,1.1c-0.1,1.8-0.3,3.7-0.3,5.5
		c0,0.5-0.3,1.1-0.2,1.5c0.2,0.6,1,0.9,1.5,0.8c1.6,0,3.6,0.1,5.2-0.4c0.6-0.2,0.9-0.9,1.1-1.2h-1.4c-0.1,0-0.1,0-0.1-0.1
		s0-0.1,0.1-0.1H42c0-0.1,0.1-0.3,0.1-0.4c-1.3-0.1-1.5,0-1.6,0s-0.1,0-0.1-0.1s0-0.1,0.1-0.1h1.6v-0.4C41,49.9,40.8,50,40.7,50z
		 M14.9,50.2c-0.6-0.4-1.2-0.5-1.7,0.1c-0.4,0.6-0.3,1.5-0.4,2.2v2.4c0,0.5-0.2,1.3,0,1.9c0.2,0.5,0.6,0.7,1,0.8c-0.1-1,0-1.3,0-1.3
		c0-0.1,0.1-0.1,0.1-0.1c0.1,0,0.1,0.1,0.1,0.1v1.3h0.4c-0.1-1.1,0-1.3,0-1.4c0-0.1,0.1-0.1,0.1-0.1c0.1,0,0.1,0.1,0.1,0.1v1.3H15
		c-0.1-1.1,0-1.4,0-1.4c0-0.1,0.1-0.1,0.1-0.1c0.1,0,0.1,0.1,0.1,0.1v1.3h0.3c-0.1-1.1,0-1.3,0-1.4c0-0.1,0.1-0.1,0.1-0.1
		c0.1,0,0.1,0.1,0.1,0.1v1.3c0.2-0.1,0.4-0.2,0.5-0.3c0.2-0.3,0.3-0.6,0.2-0.9c0-0.3-0.1-0.8-0.2-1.2c-0.1-0.4-0.1-0.7-0.1-1.1
		c0-0.2,0-0.2,0.1-0.2c0.1-0.1,0.3,0,0.4,0h0.8c-0.1-1.1-0.2-2.2-0.2-3.4C16.7,50.5,15.8,50.4,14.9,50.2z M18.1,50.5
		c0.1,1.1,0.2,2.3,0.2,3.4h0.8c-0.1-1.2-0.2-2.3-0.3-3.5C18.6,50.4,18.4,50.5,18.1,50.5z M25.3,52.6l-0.1-9.5c-1.1,0-2.1,0-3.2,0.1
		c0.1,0.8,0.1,1.7,0.1,2.5c0,1.2,0.2,3.6-0.9,4.3l-1.8,0.3c0.1,1.2,0.3,2.3,0.3,3.5c1.1,0,2.1-0.1,3.1-0.2S24.7,53.2,25.3,52.6z"/>
	<path class="st0" d="M27,30.2c-1.6-0.5-3.2-1.3-4.6-2.2c-0.2,0.1-0.4,0.1-0.5,0.2h-0.2c-0.1,0-0.2-0.1-0.2-0.2l-0.1-0.3
		c-1.9,1-3.8,2.1-5.6,3.2c-1.4,0.9-1.6,1.9-1.7,3.4c-0.1,1.2,0.4,3.2,0.5,4.4c-0.7,0.5-1.3,1.1-1.9,1.8c-0.4,0.6-1.1,2.4-0.5,2.9
		c0.6-0.7,2-2.7,2.1-2.8h0.2v0.2c-0.1,0.1-1.4,2-2.1,2.9v0.1c0.1,0.2,0.2,0.3,0.3,0.4c0.8-1,2.2-3,2.2-3.1s0.1-0.1,0.2,0
		c0.1,0,0.1,0.1,0,0.2s-1.6,2.3-2.2,3.1c1,0.4,3-1.1,3.2-2.8c0.3,0.5,1,1.1,1.6,1h0.1c0.5-0.4-0.1-1.4-0.3-2
		c-0.3-0.8-0.6-2.5-0.7-3.4v-0.1c0-0.6-0.1-1.5,0-2.1c0.3-1.2,1-1.2,2.1-1.8c0.4-0.2,0.9-0.3,1.3-0.4c0.4,2,0.7,4.1,1.1,6.1
		c1.6-0.5,3.3-0.5,4.9-0.6c1.8-0.1,3.6-0.2,5.5-0.4c0.1-1,0.2-2,0.3-3.1c0-0.2,0-0.3,0.1-0.5C29.7,34.2,27,32.9,27,30.2z M28.3,37.1
		c-0.1,0-0.2-0.1-0.2-0.2s0.1-0.2,0.2-0.2c0.1,0,0.2,0.1,0.2,0.2S28.4,37.1,28.3,37.1z"/>
</g>
</svg>
