<svg xmlns="http://www.w3.org/2000/svg" viewBox="0 0 826.06 262.76">
    <defs>
        <style>
            .cls-1 {
                font-size: 32px;
                font-family: CourierPrime, Courier Prime;
                letter-spacing: -0.02em;
            }
            
            .cls-2 {
                font-family: CourierPrime-Bold, Courier Prime;
                font-weight: 700;
            }
        </style>
    </defs>
    <title>Recurso 5</title>
    <g id="Capa_2" data-name="Capa 2">
        <g id="Chillside">
            <g id="Testo">
                <text class="cls-1" transform="translate(0.06 25.27) scale(1.04 1)">¡Hola! Somos
                    <tspan class="cls-2" x="239.87" y="0">Chillside</tspan>
                    <tspan x="405.93" y="0">, una agencia de </tspan>
                    <tspan x="0" y="38.4">marketing y programación especializada en </tspan>
                    <tspan x="0" y="76.8">publicidad estratégica. Estamos convenci</tspan>
                    <tspan x="738.06" y="76.8">-</tspan>
                    <tspan x="0" y="115.2">dos de que no descansaras hasta llegar a </tspan>
                    <tspan x="0" y="153.6">la cima, déjanos ayudarte a lograrlo.</tspan>
                </text>
            </g>
        </g>
    </g>
</svg>