<svg xmlns="http://www.w3.org/2000/svg" viewBox="0 0 607.34 178.13">
    <defs>
        <style>
            .cls-1 {
                font-size: 24px;
                font-family: CourierPrime, Courier Prime;
                letter-spacing: -0.02em;
            }
            
            .cls-2 {
                font-family: CourierPrime-Bold, Courier Prime;
                font-weight: 700;
            }
        </style>
    </defs>
    <title>Recurso 5</title>
    <g id="Capa_2" data-name="Capa 2">
        <g id="Chillside">
            <g id="Testo">
                <text class="cls-1" transform="translate(0.04 18.96) scale(1.04 1)">¡Hola! Somos
                    <tspan class="cls-2" x="179.9" y="0">Chillside</tspan>
                    <tspan x="304.45" y="0">, una agencia de </tspan>
                    <tspan x="0" y="28.8">marketing y programación especializada en </tspan>
                    <tspan x="0" y="57.6">publicidad estratégica. Estamos convenci</tspan>
                    <tspan x="553.54" y="57.6">-</tspan>
                    <tspan x="0" y="86.4">dos de que no descansaras hasta llegar a </tspan>
                    <tspan x="0" y="115.2">la cima, déjanos ayudarte a lograrlo.</tspan>
                </text>
            </g>
        </g>
    </g>
</svg>