<?xml version="1.0" encoding="utf-8"?>
<!-- Generator: Adobe Illustrator 21.0.2, SVG Export Plug-In . SVG Version: 6.00 Build 0)  -->
<svg fill="#ffffff" version="1.1" id="Capa_1" xmlns="http://www.w3.org/2000/svg" xmlns:xlink="http://www.w3.org/1999/xlink" x="0px" y="0px"
	 viewBox="0 0 86 86" style="enable-background:new 0 0 86 86;" xml:space="preserve">
<g>
	<path d="M65,5.9c1.3-1.4,1.3-3.5,0-4.9c-1.3-1.4-3.5-1.4-4.8,0L21,40.6c-1.3,1.4-1.3,3.5,0,4.9L60.2,85
		c1.3,1.4,3.5,1.4,4.8,0s1.3-3.5,0-4.9L29.3,43L65,5.9z"/>
</g>
</svg>
